2.482426256179809627e+02
2.826118032455444506e+01
1.799029636383056641e+01
1.618086411476135211e+01
1.485183522224426333e+01
1.378453064918518045e+01
1.318101074218749957e+01
1.266339572906494126e+01
1.208399011611938434e+01
1.168710974693298255e+01
1.124175017356872530e+01
1.097317587852477949e+01
1.065715082168579109e+01
1.027775003433227496e+01
1.000546297073364244e+01
9.746364021301269887e+00
9.472861557006835298e+00
9.314123811721801260e+00
9.035262718200684162e+00
8.885917744636536497e+00
8.788095350265502148e+00
8.648593978881836009e+00
8.452868781089783567e+00
8.366268348693846946e+00
8.215959038734435893e+00
8.058801188468933674e+00
8.112563195228576163e+00
7.750221996307373296e+00
7.663461160659790217e+00
7.507547502517700089e+00
7.518708920478820446e+00
7.447668533325195739e+00
7.426219792366027583e+00
7.439466361999511612e+00
7.214062948226928285e+00
7.247527918815612757e+00
7.168120961189270446e+00
7.122023167610168848e+00
7.007919645309447887e+00
7.025268783569336151e+00
6.968352370262145712e+00
7.030510239601134970e+00
6.978829283714294007e+00
6.916633458137511958e+00
6.924598031044006063e+00
6.944802455902099325e+00
6.890485091209411550e+00
6.852747945785522710e+00
6.846517281532287669e+00
6.817621283531188681e+00
