2.624771002197265375e+02
2.834510690689086942e+01
1.819338037490844684e+01
1.649422183036804057e+01
1.540318886756896966e+01
1.414152033805847175e+01
1.319285023689270098e+01
1.237658933639526282e+01
1.167196563720703040e+01
1.106524369239807193e+01
1.069694200515747085e+01
1.023514231681823716e+01
9.877210788726806356e+00
9.619207611083984588e+00
9.331463508605956747e+00
9.175755081176758310e+00
8.943639903068541841e+00
8.727090926170349761e+00
8.636881456375121502e+00
8.522929897308349823e+00
8.601503243446350311e+00
8.267569780349731445e+00
8.215457835197447878e+00
8.136507740020752166e+00
8.114787936210632324e+00
8.120040354728699228e+00
8.018238840103149911e+00
8.004396624565124796e+00
7.896148953437805318e+00
7.871689691543578782e+00
7.925666599273681889e+00
7.828588624000548890e+00
7.538263349533081303e+00
7.459331111907959055e+00
7.426875753402709890e+00
7.382448439598083390e+00
7.395985341072082164e+00
7.407928223609924423e+00
7.336789784431457129e+00
7.262667660713195694e+00
7.256017460823058762e+00
7.220541315078735423e+00
7.212231245040893413e+00
7.231641273498535583e+00
7.242950882911681987e+00
7.032983851432800471e+00
6.941225504875182750e+00
6.995358705520629883e+00
6.975218563079834233e+00
6.915512323379516602e+00
