8.657911296844481797e+01
2.165188112258910991e+01
1.791202102661132756e+01
1.624677878379821649e+01
1.489630436897277832e+01
1.394414677619934118e+01
1.299003200531005930e+01
1.220902111053466754e+01
1.165095827102661197e+01
1.104068509101867690e+01
1.067410964965820241e+01
1.025272686004638700e+01
1.000812003135681216e+01
9.594696226119994620e+00
9.347792348861695189e+00
9.304903211593627432e+00
9.046069650650023775e+00
8.780358562469482209e+00
8.674351553916931579e+00
8.599963746070862669e+00
8.518226280212402912e+00
8.017547054290771413e+00
7.967194647789001216e+00
7.917466974258422496e+00
7.958103199005126527e+00
7.861452703475952042e+00
7.804920444488525177e+00
7.750603818893432972e+00
7.744862155914306712e+00
7.649946451187133789e+00
7.631948790550231898e+00
7.711596560478210627e+00
7.639923739433288397e+00
7.641513466835021973e+00
7.537902126312255646e+00
7.559278979301452317e+00
7.481661467552185307e+00
7.451508631706238006e+00
7.374826693534851429e+00
7.360469021797180211e+00
7.226214504241943004e+00
7.121393742561340723e+00
7.130558395385742543e+00
7.105074830055237101e+00
7.016005339622497949e+00
7.024603576660156001e+00
7.037033648490905513e+00
6.943061461448669647e+00
7.042046170234680602e+00
6.955638141632079829e+00
