1.814884112358093375e+02
2.492092613220214758e+01
1.841257225036621037e+01
1.650259457588195744e+01
1.539593203544616706e+01
1.434393342018127449e+01
1.349675829887390144e+01
1.259808508872985833e+01
1.187875827789306626e+01
1.134594688415527308e+01
1.081700273513794031e+01
1.031345709800720201e+01
1.007318962097168047e+01
9.850174932479857759e+00
9.468656673431397053e+00
9.144236211776734180e+00
9.507797832489012890e+00
8.957480869293213743e+00
8.744468789100647399e+00
8.622766556739806632e+00
8.537317538261413929e+00
8.428501238822937225e+00
8.332861499786377024e+00
8.239596309661864737e+00
8.241620306968689746e+00
7.849103374481201101e+00
7.823731021881103587e+00
7.725034294128417578e+00
7.699956483840942667e+00
7.606693778038025044e+00
7.587690711021423340e+00
7.555181245803833434e+00
7.484402832984923926e+00
7.506452155113220392e+00
7.558271470069885645e+00
7.383985862731933913e+00
7.447740645408630122e+00
7.224116396903991877e+00
7.160652170181274201e+00
7.119771604537963761e+00
7.136188650131225941e+00
7.115519280433654892e+00
7.096951556205749689e+00
7.051021647453308283e+00
6.982514395713805833e+00
6.911672329902648571e+00
6.889206886291503906e+00
6.880227742195129004e+00
6.845507373809814666e+00
6.735506696701049734e+00
