2.566871163940429597e+02
2.784153057098388828e+01
1.833997514724731559e+01
1.668676546096801871e+01
1.551674244880676312e+01
1.482918247222900376e+01
1.418991793632507381e+01
1.356851682662963832e+01
1.305474481582641566e+01
1.261115129470825202e+01
1.224884065628051744e+01
1.181062754631042466e+01
1.142658552169799790e+01
1.121436453819274881e+01
1.081545040130615298e+01
1.050951963424682667e+01
1.035592340469360373e+01
1.010867733955383230e+01
9.826188516616820579e+00
9.686253023147582297e+00
9.461581420898436789e+00
9.347707805633545419e+00
9.145432138442993519e+00
9.118507452011108683e+00
8.912016386985778027e+00
8.800131773948669078e+00
8.648244853019713574e+00
8.572580032348632528e+00
8.502723250389099263e+00
8.402417073249816681e+00
8.291653304100035982e+00
8.214072074890136577e+00
8.186550393104553791e+00
8.083070764541625763e+00
8.047216043472289471e+00
7.995631685256958221e+00
7.866073021888732697e+00
7.888214344978332626e+00
7.821466941833495667e+00
7.750236535072327015e+00
7.742735800743102637e+00
7.633948054313659526e+00
7.475097475051879492e+00
7.353433737754821564e+00
7.363249325752258656e+00
7.295179553031921671e+00
7.283795776367187891e+00
7.242617325782775950e+00
7.214164743423461701e+00
7.135716447830199982e+00
